%YAML 1.1
%TAG !u! tag:unity3d.com,2011:
--- !u!21 &2100000
Material:
  serializedVersion: 6
  m_ObjectHideFlags: 0
  m_CorrespondingSourceObject: {fileID: 0}
  m_PrefabInstance: {fileID: 0}
  m_PrefabAsset: {fileID: 0}
  m_Name: Shader Graphs_snow
  m_Shader: {fileID: -6465566751694194690, guid: f422b807117220a4f948a9543a43d59a, type: 3}
  m_ShaderKeywords: 
  m_LightmapFlags: 4
  m_EnableInstancingVariants: 0
  m_DoubleSidedGI: 0
  m_CustomRenderQueue: -1
  stringTagMap: {}
  disabledShaderPasses: []
  m_SavedProperties:
    serializedVersion: 3
    m_TexEnvs: []
    m_Floats: []
    m_Colors:
    - Color_8A49F856: {r: 1, g: 0, b: 0.4641628, a: 0}
    - Color_DBE697AA: {r: 0.3196079, g: 0.2215686, b: 0.4568627, a: 0}
  m_BuildTextureStacks: []
