%YAML 1.1
%TAG !u! tag:unity3d.com,2011:
--- !u!21 &2100000
Material:
  serializedVersion: 6
  m_ObjectHideFlags: 0
  m_CorrespondingSourceObject: {fileID: 0}
  m_PrefabInstance: {fileID: 0}
  m_PrefabAsset: {fileID: 0}
  m_Name: Shader Graphs_ice
  m_Shader: {fileID: -6465566751694194690, guid: f61ad3c5d34b24a409c41c07c0979112, type: 3}
  m_ShaderKeywords: 
  m_LightmapFlags: 4
  m_EnableInstancingVariants: 0
  m_DoubleSidedGI: 0
  m_CustomRenderQueue: -1
  stringTagMap: {}
  disabledShaderPasses: []
  m_SavedProperties:
    serializedVersion: 3
    m_TexEnvs: []
    m_Floats: []
    m_Colors:
    - Color_4946EC2E: {r: 0.02360266, g: 0.6635949, b: 0.735849, a: 0}
    - Color_5144AE61: {r: 1, g: 0.7406611, b: 0, a: 0}
  m_BuildTextureStacks: []
